[
  {
    "model": "links.link",
    "pk": 1,
    "fields": {
      "name": "Link 1 - 10 GHz",
      "frequency": 10
    }
  },
  {
    "model": "links.link",
    "pk": 2,
    "fields": {
      "name": "Link 2 - 3 GHz",
      "frequency": 3
    }
  },
  {
    "model": "links.link",
    "pk": 3,
    "fields": {
      "name": "Link 3 - 15 GHz",
      "frequency": 15
    }
  },
  {
    "model": "links.link",
    "pk": 4,
    "fields": {
      "name": "Link 4 - 7 GHz",
      "frequency": 7
    }
  },
  {
    "model": "links.link",
    "pk": 5,
    "fields": {
      "name": "Link 5 - 25 GHz",
      "frequency": 25
    }
  },
  {
    "model": "links.link",
    "pk": 6,
    "fields": {
      "name": "Link 6 - 37 GHz",
      "frequency": 37
    }
  },
  {
    "model": "links.link",
    "pk": 7,
    "fields": {
      "name": "Link 7 - 13 GHz",
      "frequency": 13
    }
  }
]
